/* XPM */
/* http://jamesthevicar.com/wordpress/wp-content/uploads/2011/10/apple-red.png */
static const char * apple_red_xpm[] = {
"24 24 250 2",
"  	c None",
". 	c #41790A",
"+ 	c #58961C",
"@ 	c #5D9C21",
"# 	c #5B9920",
"$ 	c #508C17",
"% 	c #548E1B",
"& 	c #82CE37",
"* 	c #72C422",
"= 	c #6EC21C",
"- 	c #69BB19",
"; 	c #69B61E",
"> 	c #6CB02C",
", 	c #4F8818",
"' 	c #0D0800",
") 	c #6CAE2C",
"! 	c #6DC11B",
"~ 	c #5FAC14",
"{ 	c #5FAD14",
"] 	c #60B014",
"^ 	c #58A50F",
"/ 	c #5CA317",
"( 	c #538C1C",
"_ 	c #271800",
": 	c #76BC33",
"< 	c #6ABD18",
"[ 	c #529A0E",
"} 	c #488A09",
"| 	c #498C09",
"1 	c #4F980A",
"2 	c #559914",
"3 	c #4B8315",
"4 	c #010000",
"5 	c #3B7504",
"6 	c #69AC2A",
"7 	c #6DB724",
"8 	c #5BA910",
"9 	c #529C0B",
"0 	c #448605",
"a 	c #3F7F04",
"b 	c #488413",
"c 	c #3D5204",
"d 	c #160000",
"e 	c #8F1D1D",
"f 	c #A94040",
"g 	c #AA4141",
"h 	c #A53737",
"i 	c #750202",
"j 	c #662701",
"k 	c #72882F",
"l 	c #509419",
"m 	c #54921B",
"n 	c #4E8E19",
"o 	c #528A1D",
"p 	c #7F7830",
"q 	c #A25E2F",
"r 	c #B96365",
"s 	c #E25252",
"t 	c #D62D2D",
"u 	c #D12424",
"v 	c #D12D2D",
"w 	c #DA5454",
"x 	c #A33333",
"y 	c #DE6B6B",
"z 	c #F14A4D",
"A 	c #FD9298",
"B 	c #F2ADAA",
"C 	c #F8A5A7",
"D 	c #FD9BA1",
"E 	c #F39294",
"F 	c #E96A6A",
"G 	c #DD3232",
"H 	c #DB3333",
"I 	c #D72F2F",
"J 	c #D32A2A",
"K 	c #D02727",
"L 	c #CC2121",
"M 	c #D03333",
"N 	c #A73535",
"O 	c #AE3C3C",
"P 	c #ED5050",
"Q 	c #F59494",
"R 	c #F9A6A6",
"S 	c #F79C9C",
"T 	c #F49292",
"U 	c #F18787",
"V 	c #EE7C7C",
"W 	c #E86464",
"X 	c #DF3737",
"Y 	c #DB3434",
"Z 	c #D83030",
"` 	c #D42B2B",
" .	c #CD2323",
"..	c #C91E1E",
"+.	c #D44242",
"@.	c #881111",
"#.	c #E46969",
"$.	c #ED5F5F",
"%.	c #F69B9B",
"&.	c #F69191",
"*.	c #F48989",
"=.	c #F27E7E",
"-.	c #EE7373",
";.	c #EB6868",
">.	c #E34343",
",.	c #DF3838",
"'.	c #D73030",
").	c #CD2222",
"!.	c #C41616",
"~.	c #AF3F3F",
"{.	c #800E0E",
"].	c #F06464",
"^.	c #EE7474",
"/.	c #F18282",
"(.	c #F17B7B",
"_.	c #EF7171",
":.	c #ED6868",
"<.	c #EA5C5C",
"[.	c #E64F4F",
"}.	c #E03939",
"|.	c #DD3737",
"1.	c #D93333",
"2.	c #D62F2F",
"3.	c #CF2626",
"4.	c #CC2222",
"5.	c #C41717",
"6.	c #C84747",
"7.	c #A23232",
"8.	c #E64D4D",
"9.	c #E54A4A",
"0.	c #EB6C6C",
"a.	c #EA6262",
"b.	c #E85959",
"c.	c #E74F4F",
"d.	c #E44444",
"e.	c #E03B3B",
"f.	c #D52C2C",
"g.	c #D12828",
"h.	c #CD2424",
"i.	c #CB2020",
"j.	c #C71B1B",
"k.	c #C31717",
"l.	c #D14949",
"m.	c #A93B3B",
"n.	c #DF3E3E",
"o.	c #E34949",
"p.	c #E34848",
"q.	c #E13F3F",
"r.	c #E03A3A",
"s.	c #DE3838",
"t.	c #DC3636",
"u.	c #DA3333",
"v.	c #D22929",
"w.	c #CF2525",
"x.	c #CB2222",
"y.	c #C61A1A",
"z.	c #C21616",
"A.	c #D24848",
"B.	c #650000",
"C.	c #A73939",
"D.	c #DC3939",
"E.	c #DC3434",
"F.	c #DA3232",
"G.	c #D72E2E",
"H.	c #C61B1B",
"I.	c #BF1212",
"J.	c #CC4545",
"K.	c #9E2E2E",
"L.	c #DA3F3F",
"M.	c #D62E2E",
"N.	c #D52D2D",
"O.	c #D32B2B",
"P.	c #C81E1E",
"Q.	c #C01414",
"R.	c #BD0E0E",
"S.	c #C04040",
"T.	c #730000",
"U.	c #DE5454",
"V.	c #D12727",
"W.	c #D22828",
"X.	c #CB2121",
"Y.	c #CA1F1F",
"Z.	c #C71D1D",
"`.	c #BD1010",
" +	c #B90909",
".+	c #A83939",
"++	c #BA4747",
"@+	c #CB1E1E",
"#+	c #C81C1C",
"$+	c #C41818",
"%+	c #C11515",
"&+	c #BC1010",
"*+	c #BA0C0C",
"=+	c #C52F2F",
"-+	c #861212",
";+	c #800808",
">+	c #D55050",
",+	c #C71C1C",
"'+	c #C41919",
")+	c #C21515",
"!+	c #C01313",
"~+	c #BE1111",
"{+	c #BC0E0E",
"]+	c #B90B0B",
"^+	c #B60707",
"/+	c #AF3939",
"(+	c #8B1B1B",
"_+	c #D34B4B",
":+	c #C11212",
"<+	c #C11414",
"[+	c #BF1111",
"}+	c #BD0F0F",
"|+	c #BB0E0E",
"1+	c #BA0B0B",
"2+	c #B80909",
"3+	c #B40303",
"4+	c #C24747",
"5+	c #750000",
"6+	c #801111",
"7+	c #C84F4F",
"8+	c #C32020",
"9+	c #BC0C0C",
"0+	c #BC0F0F",
"a+	c #BB0D0D",
"b+	c #B90C0C",
"c+	c #B80A0A",
"d+	c #B60808",
"e+	c #B40404",
"f+	c #B70E0E",
"g+	c #C04747",
"h+	c #740505",
"i+	c #4C0000",
"j+	c #9B2B2B",
"k+	c #C24343",
"l+	c #C93A3A",
"m+	c #BE1D1D",
"n+	c #B70C0C",
"o+	c #B60B0B",
"p+	c #BE2424",
"q+	c #C43E3E",
"r+	c #A13030",
"s+	c #530000",
"t+	c #480000",
"u+	c #660202",
"v+	c #932020",
"w+	c #9E2D2D",
"x+	c #A23333",
"y+	c #9D2C2C",
"z+	c #881616",
"A+	c #570000",
"                                                ",
"                                                ",
"    . + @ # $                                   ",
"  % & * = - ; > ,       '                       ",
"    ) ! ~ { ] ^ / (     _                       ",
"      : < [ } | 1 2 3   4                       ",
"      5 6 7 8 9 0 a b c d e f g h i             ",
"        j k l m n o p q r s t u v w x           ",
"        y z A B C D E F G H I J K L M N         ",
"      O P Q R S T U V W X Y Z ` K  ...+.@.      ",
"      #.$.%.&.*.=.-.;.>.,.Y '.` K )...!.~.      ",
"    {.].^./.(._.:.<.[.}.|.1.2.J 3.4...5.6.      ",
"    7.8.9.0.a.b.c.d.e.|.H Z f.g.h.i.j.k.l.      ",
"    m.n.,.o.p.q.r.s.t.u.Z f.v.w.x...y.z.A.B.    ",
"    C.D.u.Y E.E.Y F.Z G.` v.w.4...H.k.I.J.      ",
"    K.L.M.I M.G.M.N.O.v.K h.L P.H.k.Q.R.S.      ",
"    T.U.V.v.W.W.g.K 3.h.X.Y.Z.y.z.Q.`. +.+      ",
"      ++@+ .4.4.4.X.i...#+y.$+%+I.&+*+=+-+      ",
"      ;+>+y.#+#+,+j.y.'+k.)+!+~+{+]+^+/+        ",
"        (+_+:+k.z.z.<+!+[+}+|+1+2+3+4+5+        ",
"          6+7+8+9+0+0+a+b+c+d+e+f+g+h+          ",
"            i+j+k+l+m+n+e+o+p+q+r+s+            ",
"                t+u+v+w+x+y+z+A+                ",
"                                                "};
