/* XPM */
/* https://www.iconfinder.com/icons/34218/download/png/24 */
static const char * condone24_xpm[] = {
"24 24 178 2",
"  	c None",
". 	c #CA7A79",
"+ 	c #EAA39F",
"@ 	c #B44A47",
"# 	c #C05352",
"$ 	c #B63D3B",
"% 	c #920301",
"& 	c #A84443",
"* 	c #DF9997",
"= 	c #F3AEA9",
"- 	c #CD6964",
"; 	c #B43E3C",
"> 	c #CE6A69",
", 	c #B03635",
"' 	c #8E0201",
") 	c #C77A78",
"! 	c #F4C9C5",
"~ 	c #FFC8C2",
"{ 	c #FFAFA7",
"] 	c #FFA296",
"^ 	c #F07E70",
"/ 	c #B7332D",
"( 	c #B83534",
"_ 	c #DD706F",
": 	c #D3706E",
"< 	c #AD3A39",
"[ 	c #D58D8A",
"} 	c #F8C0B9",
"| 	c #FFBCB1",
"1 	c #FEA094",
"2 	c #FC8A7A",
"3 	c #FF7D67",
"4 	c #FF674D",
"5 	c #D8311D",
"6 	c #A61515",
"7 	c #D84D4B",
"8 	c #E26764",
"9 	c #B43837",
"0 	c #AF4240",
"a 	c #D66E66",
"b 	c #FB8D7E",
"c 	c #FF7F69",
"d 	c #FA644A",
"e 	c #F94D2E",
"f 	c #FD3C1A",
"g 	c #DF210C",
"h 	c #960503",
"i 	c #BE1B18",
"j 	c #E44140",
"k 	c #CB3C3B",
"l 	c #AC2824",
"m 	c #DD4938",
"n 	c #FE5233",
"o 	c #F83A1C",
"p 	c #EC290F",
"q 	c #EE220B",
"r 	c #DC1606",
"s 	c #9C0703",
"t 	c #AA0603",
"u 	c #D00F0C",
"v 	c #DE2421",
"w 	c #B41B1A",
"x 	c #B4150C",
"y 	c #DE220F",
"z 	c #EA1F0B",
"A 	c #E01706",
"B 	c #E01406",
"C 	c #D10D03",
"D 	c #9D0503",
"E 	c #AF0503",
"F 	c #D40604",
"G 	c #D40908",
"H 	c #A90907",
"I 	c #C00E05",
"J 	c #DC0F04",
"K 	c #D70C03",
"L 	c #D40802",
"M 	c #CF0502",
"N 	c #D10301",
"O 	c #CB0201",
"P 	c #A00503",
"Q 	c #990603",
"R 	c #CC0702",
"S 	c #CF0401",
"T 	c #CD0100",
"U 	c #CE0000",
"V 	c #A30302",
"W 	c #9D0303",
"X 	c #CA0201",
"Y 	c #CE0100",
"Z 	c #CF0100",
"` 	c #BC0402",
" .	c #AC0403",
"..	c #D00100",
"+.	c #CF0000",
"@.	c #C60100",
"#.	c #B70302",
"$.	c #D10601",
"%.	c #DB0A03",
"&.	c #B70A04",
"*.	c #B20302",
"=.	c #D00000",
"-.	c #CC0201",
";.	c #A10503",
">.	c #AB0804",
",.	c #E01205",
"'.	c #E91907",
").	c #A20C06",
"!.	c #B30202",
"~.	c #CC0000",
"{.	c #D20201",
"].	c #A70503",
"^.	c #AE0F06",
"/.	c #F4250A",
"(.	c #E9280C",
"_.	c #8E0A05",
":.	c #AE0202",
"<.	c #CC0100",
"[.	c #D30401",
"}.	c #B90603",
"|.	c #B11608",
"1.	c #FF360F",
"2.	c #CA1F0A",
"3.	c #A30402",
"4.	c #CD0201",
"5.	c #D50601",
"6.	c #CB0903",
"7.	c #C31C0A",
"8.	c #FE300E",
"9.	c #A30F06",
"0.	c #940402",
"a.	c #D00301",
"b.	c #D40902",
"c.	c #D80D04",
"d.	c #9E0804",
"e.	c #D8200B",
"f.	c #E1220C",
"g.	c #BB0503",
"h.	c #D50501",
"i.	c #D20902",
"j.	c #E01005",
"k.	c #B80D05",
"l.	c #920704",
"m.	c #E7210C",
"n.	c #B51107",
"o.	c #960D0C",
"p.	c #D7231E",
"q.	c #D81009",
"r.	c #DD1104",
"s.	c #D41507",
"t.	c #AF0F07",
"u.	c #DB1A0B",
"v.	c #B12D29",
"w.	c #E8524A",
"x.	c #E12E21",
"y.	c #EA210B",
"z.	c #CE1A07",
"A.	c #CF1509",
"B.	c #A90B06",
"C.	c #BB4540",
"D.	c #F47E72",
"E.	c #EC5847",
"F.	c #F84227",
"G.	c #D5260F",
"H.	c #9D0804",
"I.	c #C30C06",
"J.	c #A43533",
"K.	c #FCA69A",
"L.	c #FC8975",
"M.	c #FF7054",
"N.	c #BF2A1A",
"O.	c #A30704",
"P.	c #CB746C",
"Q.	c #F2A493",
"R.	c #DE6555",
"S.	c #992B28",
"T.	c #CF7066",
"U.	c #AD332E",
"    . + @                                 # $ % ",
"  & * = -                               ; > , ' ",
") ! ~ { ] ^ /                       ( _ : <     ",
"[ } | 1 2 3 4 5                 6 7 8 9         ",
"  0 a b c d e f g h           i j k             ",
"      l m n o p q r s     t u v w               ",
"          x y z A B C D E F G H                 ",
"              I J K L M N O P                   ",
"                Q R S T U V                     ",
"                W X Y U Z `                     ",
"               ...+.@.#.$.%.&.                  ",
"            *.=.+.-.;.  >.,.'.).                ",
"          !.=.~.{.].      ^./.(._.              ",
"        :.=.<.[.}.          |.1.2.              ",
"      3.=.4.5.6.              7.8.9.            ",
"    0.<.a.b.c.d.                e.f.            ",
"    g.h.i.j.k.                  l.m.n.          ",
"  o.p.q.r.s.                      t.u.          ",
"  v.w.x.y.z.                        A.B.        ",
"  C.D.E.F.G.                        H.I.        ",
"  J.K.L.M.N.                          O.        ",
"    P.Q.R.                                      ",
"    S.T.U.                                      ",
"                                                "};
