/* XPM */
static const char * creditremove24_xpm[] = {
"24 24 187 2",
"  	c None",
". 	c #4E4E4E",
"+ 	c #000000",
"@ 	c #886221",
"# 	c #9B7025",
"$ 	c #9F7526",
"% 	c #664A19",
"& 	c #7A591E",
"* 	c #B7862E",
"= 	c #D69E36",
"- 	c #DDA639",
"; 	c #E5AF3C",
"> 	c #EDB93F",
", 	c #EBB73E",
"' 	c #DFA93B",
") 	c #CE9935",
"! 	c #9D7227",
"~ 	c #E1AD42",
"{ 	c #E7B445",
"] 	c #ECBB48",
"^ 	c #EEBC49",
"/ 	c #EEBD49",
"( 	c #ECBA48",
"_ 	c #EAB544",
": 	c #E5B040",
"< 	c #E8B342",
"[ 	c #EAB746",
"} 	c #E4B043",
"| 	c #EEC053",
"1 	c #EDBE52",
"2 	c #E7B44A",
"3 	c #E1AB41",
"4 	c #DBA43C",
"5 	c #D59E37",
"6 	c #D09833",
"7 	c #D29934",
"8 	c #D8A641",
"9 	c #AD7E2B",
"0 	c #805C1F",
"a 	c #D49E3C",
"b 	c #DCA745",
"c 	c #DFAC49",
"d 	c #E4B350",
"e 	c #E9BA56",
"f 	c #F1D392",
"g 	c #F2D28C",
"h 	c #F2D082",
"i 	c #F3CE7A",
"j 	c #DFAF51",
"k 	c #696A6D",
"l 	c #8F9091",
"m 	c #F3C869",
"n 	c #F1CB70",
"o 	c #D7A546",
"p 	c #D9A950",
"q 	c #D2A352",
"r 	c #DAAE5F",
"s 	c #E3BB72",
"t 	c #D9AB56",
"u 	c #6D6E71",
"v 	c #9A9B9D",
"w 	c #EBEBEC",
"x 	c #D2D4D8",
"y 	c #EDC97B",
"z 	c #F5D58C",
"A 	c #EAC378",
"B 	c #76763D",
"C 	c #838587",
"D 	c #ACADAE",
"E 	c #E3E4E5",
"F 	c #CFD1D4",
"G 	c #D6B579",
"H 	c #E7C584",
"I 	c #93C27C",
"J 	c #7EB569",
"K 	c #95C57F",
"L 	c #9DD795",
"M 	c #A9C997",
"N 	c #73B46F",
"O 	c #939494",
"P 	c #909091",
"Q 	c #B1A999",
"R 	c #97D38E",
"S 	c #A2D99A",
"T 	c #8CCA84",
"U 	c #A0D898",
"V 	c #9AD492",
"W 	c #A4DA9D",
"X 	c #7BBA76",
"Y 	c #7EBC79",
"Z 	c #AED9AA",
"` 	c #98D28F",
" .	c #A1D899",
"..	c #9ED795",
"+.	c #BAE5B3",
"@.	c #66AC61",
"#.	c #80BE7B",
"$.	c #90CB89",
"%.	c #A3DA9B",
"&.	c #9DD794",
"*.	c #BDE7B6",
"=.	c #519F4D",
"-.	c #83BF7E",
";.	c #AFD6AC",
">.	c #9FD897",
",.	c #BCE6B6",
"'.	c #52A14D",
").	c #A5D7A1",
"!.	c #81BF7A",
"~.	c #81BE7C",
"{.	c #AED5AA",
"].	c #AED6AB",
"^.	c #ACD5A9",
"/.	c #BBE6B4",
"(.	c #59A555",
"_.	c #A8DD9F",
":.	c #B7E5B0",
"<.	c #5BA656",
"[.	c #85C17F",
"}.	c #AFDDA9",
"|.	c #8AC484",
"1.	c #DEF1DA",
"2.	c #D1EBCD",
"3.	c #ACD4A9",
"4.	c #AFD6AA",
"5.	c #C3E6BD",
"6.	c #5CA857",
"7.	c #A8DDA0",
"8.	c #9ED794",
"9.	c #9ACF95",
"0.	c #8EC788",
"a.	c #84C07D",
"b.	c #89C781",
"c.	c #DDF2DA",
"d.	c #D0EBCB",
"e.	c #CBEAC6",
"f.	c #C4E6BE",
"g.	c #BDE3B7",
"h.	c #A6D79E",
"i.	c #AADEA2",
"j.	c #C4EBBF",
"k.	c #4B9B45",
"l.	c #A5DC9D",
"m.	c #89C882",
"n.	c #AFD9A9",
"o.	c #B4DEAE",
"p.	c #95CD8E",
"q.	c #ABDCA5",
"r.	c #63AB5E",
"s.	c #AFE1A8",
"t.	c #B3E0AD",
"u.	c #74B56F",
"v.	c #72B96C",
"w.	c #99D392",
"x.	c #A1D999",
"y.	c #9CD694",
"z.	c #92CF8A",
"A.	c #91CE89",
"B.	c #BAE7B4",
"C.	c #64A95E",
"D.	c #9CD593",
"E.	c #98D491",
"F.	c #81C37A",
"G.	c #9DD695",
"H.	c #B9E4B2",
"I.	c #63AB5D",
"J.	c #B0DFA9",
"K.	c #A7D7A2",
"L.	c #69AE64",
"M.	c #B9E4B3",
"N.	c #7AB975",
"O.	c #A2D49D",
"P.	c #AEDBAA",
"Q.	c #9ED796",
"R.	c #9CD594",
"S.	c #B9E5B3",
"T.	c #6FB169",
"U.	c #7CBF75",
"V.	c #AEDBA9",
"W.	c #92CE8A",
"X.	c #B6E2B0",
"Y.	c #77B770",
"Z.	c #BEE7B7",
"`.	c #6DB266",
" +	c #B9E2B4",
".+	c #7BBB75",
"++	c #7EBD78",
"  . + + +             @ # $ # %           + + + ",
"  + + + +     & * = - ; > > , ' ) !     + + + + ",
"+ + + + + + + ~ { ] ^ / ( _ : < [ } + + + +     ",
"+ + + + + + + + | 1 2 3 4 5 6 7 + + + + 8 9 0   ",
"  + + + + + + + + + a b c d e + + + f g h i j   ",
"  k l + + + + + + + + m n + + + + o p q r s t   ",
"  u v w x + + + + + + + + + + + y z A B         ",
"  C D E F G H + + + + + + + + I J K L M N       ",
"  O P Q         + + + + + + R S T S U V W X     ",
"              Y + + + + + + Z `  .U U ..+.@.    ",
"            #.+ + + + + + + + $.%.U &.*.=.      ",
"          -.+ + + + + ;.+ + + + >.&.,.'.).      ",
"      !.~.+ + + + + {.].^.+ + + + /.(._.:.<.    ",
"  [.}.|.+ + + + + 1.2.3.4.5.+ + + 6.7.U 8.9.    ",
"  0.a.+ + + + + b.c.d.e.f.g.h.+ + + >.L i.j.k.  ",
"    + + + + + + l.m.n.g.o.p.q.r.+ + s.t.u.      ",
"    + + + + + v.w.x.y.z.A.B.C.D.+ + +           ",
"  + + + + + E.F.x.U U G.H.I.J.K.L.+ +           ",
"  + + + + + >.%.U U &.M.N.O.@.      + +         ",
"  + + + + + P.Q.R.L S.T.r.          + +         ",
"  + + + + + U.V.W.X.Y.                +         ",
"    + + + Z.,.`. +.+                            ",
"    + + + ++                                    ",
"                                                "};
