/* XPM */
static const char * debtnew_xpm[] = {
"16 16 136 2",
"  	c None",
". 	c #6BAF66",
"+ 	c #77B671",
"@ 	c #ABDCA4",
"# 	c #9CD495",
"$ 	c #66AC61",
"% 	c #AEDEA6",
"& 	c #A0D898",
"* 	c #A0D897",
"= 	c #ADDEA6",
"- 	c #5FA75C",
"; 	c #ADDDA5",
"> 	c #99D591",
", 	c #A1D999",
"' 	c #98D290",
") 	c #94D18C",
"! 	c #76B571",
"~ 	c #97D191",
"{ 	c #BBDFB6",
"] 	c #B0DAAB",
"^ 	c #95D18C",
"/ 	c #98D291",
"( 	c #75B670",
"_ 	c #9AD293",
": 	c #F7FAF6",
"< 	c #EAF6E8",
"[ 	c #E4F3E1",
"} 	c #C6E5C3",
"| 	c #95D18D",
"1 	c #A8DAA1",
"2 	c #5CA557",
"3 	c #77B773",
"4 	c #A9DBA2",
"5 	c #D1E9CD",
"6 	c #E7F5E4",
"7 	c #B3D8B0",
"8 	c #B1D8AE",
"9 	c #CFEBCA",
"0 	c #A0D299",
"a 	c #9AD691",
"b 	c #ACDCA5",
"c 	c #87C383",
"d 	c #83C07D",
"e 	c #95D38D",
"f 	c #D1EACE",
"g 	c #DBF0D8",
"h 	c #ADD5AA",
"i 	c #AED6AB",
"j 	c #C3E5BE",
"k 	c #9FD397",
"l 	c #ACDDA5",
"m 	c #6CB367",
"n 	c #B8E7AF",
"o 	c #62AA5D",
"p 	c #8DAE83",
"q 	c #ACD9A3",
"r 	c #A0D494",
"s 	c #A2D393",
"t 	c #8CC07D",
"u 	c #E5F1DB",
"v 	c #C9E6C2",
"w 	c #C1E4BB",
"x 	c #AFDCA8",
"y 	c #9FD498",
"z 	c #8DC885",
"A 	c #A6DD9D",
"B 	c #B0DEAC",
"C 	c #9C9D9E",
"D 	c #CED7CB",
"E 	c #C1BB87",
"F 	c #D2C280",
"G 	c #D1C08B",
"H 	c #C5CC8E",
"I 	c #B2D9A6",
"J 	c #A8CE93",
"K 	c #9ECF94",
"L 	c #74B46B",
"M 	c #A2D799",
"N 	c #A5D89E",
"O 	c #7CB977",
"P 	c #8A8B8E",
"Q 	c #EBECEF",
"R 	c #E3D4AA",
"S 	c #F7D587",
"T 	c #F2CC74",
"U 	c #F4D07D",
"V 	c #F8DC9D",
"W 	c #F1DCA4",
"X 	c #E6C078",
"Y 	c #E2B562",
"Z 	c #F4D388",
"` 	c #D8B068",
" .	c #7D7D7F",
"..	c #E3E6EA",
"+.	c #DEC48A",
"@.	c #F2C662",
"#.	c #F1C665",
"$.	c #EBBE5C",
"%.	c #E5B452",
"&.	c #E9BD5D",
"*.	c #F0C86F",
"=.	c #ECC87C",
"-.	c #DCB05F",
";.	c #E5BF75",
">.	c #E8C275",
",.	c #EDC573",
"'.	c #6B6C6D",
").	c #DCDFE3",
"!.	c #D9BD7D",
"~.	c #F0C053",
"{.	c #EEC154",
"].	c #EBBC51",
"^.	c #E2AC43",
"/.	c #D9A23B",
"(.	c #D29A35",
"_.	c #D59D38",
":.	c #EDBD51",
"<.	c #EDBE52",
"[.	c #E1AF48",
"}.	c #A87B2C",
"|.	c #5B5C5E",
"1.	c #CDD0D4",
"2.	c #A39B72",
"3.	c #BA9943",
"4.	c #D2A541",
"5.	c #E8B442",
"6.	c #EEBB46",
"7.	c #F0BD46",
"8.	c #EDB742",
"9.	c #E8B341",
"0.	c #D7A43D",
"a.	c #A57A2B",
"b.	c #4F4F4F",
"c.	c #987026",
"d.	c #AD802A",
"e.	c #805F21",
"                                ",
"                  . +           ",
"                  @ #           ",
"              $ % & * = -       ",
"              ; > , ' ) =       ",
"          ! ~ { ] ^ / ' & # (   ",
"          _ : < [ } | , & 1 2   ",
"      3 4 5 6 7 8 9 0 a b c     ",
"    d ; e f g h i j k l m n o   ",
"  p q r s t u v w x y z , A B   ",
"  C D E F G H I J K L M N O     ",
"  P Q R S T U V W X Y Z `       ",
"   ...+.@.#.$.%.&.*.=.-.;.>.,.  ",
"  '.).!.~.{.].^./.(._.:.<.[.}.  ",
"  |.1.2.3.4.5.6.7.8.9.0.a.      ",
"  b.          c.d.d.e.          "};
