/* XPM */
static const char * resetfund_xpm[] = {
"16 16 82 1",
" 	c None",
".	c #666666",
"+	c #656565",
"@	c #686868",
"#	c #696969",
"$	c #CBCBCB",
"%	c #C3C3C3",
"&	c #6B6B6B",
"*	c #AD8657",
"=	c #AD8758",
"-	c #6D6A67",
";	c #888684",
">	c #C8C8C8",
",	c #7C7A79",
"'	c #6A6866",
")	c #AC8655",
"!	c #C4AA89",
"~	c #6B6968",
"{	c #6F6D6A",
"]	c #C3AB8A",
"^	c #AB8655",
"/	c #AA8555",
"(	c #C1A786",
"_	c #B99C76",
":	c #96968F",
"<	c #969792",
"[	c #989993",
"}	c #999A95",
"|	c #9B9B95",
"1	c #9B9C99",
"2	c #9C9E9A",
"3	c #9E9F9C",
"4	c #9FA09D",
"5	c #A0A19E",
"6	c #A98554",
"7	c #BEA482",
"8	c #B69872",
"9	c #8E908A",
"0	c #EDEDED",
"a	c #90928D",
"b	c #A88454",
"c	c #BBA07E",
"d	c #B3946D",
"e	c #ECECEC",
"f	c #C1C1C1",
"g	c #BDBDBD",
"h	c #8E908B",
"i	c #A68354",
"j	c #B99D7A",
"k	c #B09068",
"l	c #8E8F8A",
"m	c #EAEAEA",
"n	c #A58253",
"o	c #B59A76",
"p	c #AC8D64",
"q	c #E8E8E8",
"r	c #BABABA",
"s	c #A48153",
"t	c #B29671",
"u	c #A9895F",
"v	c #E6E6E6",
"w	c #A28153",
"x	c #B0936E",
"y	c #A6855B",
"z	c #E4E4E4",
"A	c #B6B6B6",
"B	c #A18052",
"C	c #AD8F6A",
"D	c #A38156",
"E	c #E2E2E2",
"F	c #A07D52",
"G	c #AA8B65",
"H	c #A98B64",
"I	c #8D8F8A",
"J	c #E0E0E0",
"K	c #B7B7B7",
"L	c #B3B3B3",
"M	c #9D7D53",
"N	c #9E7E54",
"O	c #DFDFDF",
"P	c #DDDDDD",
"Q	c #8F928D",
"    .++@        ",
"    #$%&        ",
" *=-;$>,'=*     ",
" )!~++++{]^     ",
" /(___:<[}|12345",
" 67888900000000a",
" bcddd9efgggggeh",
" ijkkklmmmmmmmmh",
" noppplqgrrrqqqh",
" stuuulvvvvvvvvh",
" wxyyylzrAAAAAzh",
" BCDDDlEEEEEEEEh",
" FGHHHIJKLLLLJJh",
" MNNNNIOOOOOOOOh",
"      hPPPPPPPPh",
"      hIIIIIIIIQ"};
