/* XPM */
static const char * objectborrow20_xpm[] = {
"20 20 140 2",
"  	c None",
". 	c #59951D",
"+ 	c #63A820",
"@ 	c #66AF1F",
"# 	c #63AB1D",
"$ 	c #5DA01C",
"% 	c #1F3608",
"& 	c #65A428",
"* 	c #72BF27",
"= 	c #65B716",
"- 	c #63B315",
"; 	c #65B618",
"> 	c #457C12",
", 	c #070C02",
"' 	c #221500",
") 	c #79BE36",
"! 	c #6FC020",
"~ 	c #56A00F",
"{ 	c #3A7007",
"] 	c #020400",
"^ 	c #000000",
"/ 	c #386210",
"( 	c #020100",
"_ 	c #5D991F",
": 	c #447117",
"< 	c #000100",
"[ 	c #356210",
"} 	c #74840C",
"| 	c #2F1305",
"1 	c #D79E23",
"2 	c #D5A12D",
"3 	c #D59F2B",
"4 	c #BE8713",
"5 	c #320500",
"6 	c #716429",
"7 	c #D2AA2B",
"8 	c #E4B03A",
"9 	c #E49B2C",
"0 	c #DE8D1E",
"a 	c #DD8E1E",
"b 	c #E29F30",
"c 	c #D49A26",
"d 	c #473918",
"e 	c #59431A",
"f 	c #55350B",
"g 	c #54360D",
"h 	c #53360D",
"i 	c #52350C",
"j 	c #4B2F08",
"k 	c #E99A23",
"l 	c #D79C28",
"m 	c #EA961D",
"n 	c #DC9420",
"o 	c #CD9A26",
"p 	c #DF931F",
"q 	c #E0A632",
"r 	c #E9941C",
"s 	c #E0931F",
"t 	c #E2A430",
"u 	c #060401",
"v 	c #060501",
"w 	c #E9931B",
"x 	c #E1921F",
"y 	c #CE9521",
"z 	c #725215",
"A 	c #080501",
"B 	c #3E2809",
"C 	c #54360C",
"D 	c #52350B",
"E 	c #51340A",
"F 	c #4A2F08",
"G 	c #E38F18",
"H 	c #DD901C",
"I 	c #D39722",
"J 	c #8B5D19",
"K 	c #A36A17",
"L 	c #DC8E1E",
"M 	c #D98D1D",
"N 	c #D98B1C",
"O 	c #D78A1A",
"P 	c #D68718",
"Q 	c #D48617",
"R 	c #DD8915",
"S 	c #D98C19",
"T 	c #DAA531",
"U 	c #E49722",
"V 	c #8C5A12",
"W 	c #010100",
"X 	c #A86C16",
"Y 	c #E3911D",
"Z 	c #E18F1C",
"` 	c #E08E1A",
" .	c #DF8D19",
"..	c #DE8C18",
"+.	c #DD8A15",
"@.	c #DB8915",
"#.	c #D89521",
"$.	c #BF8B17",
"%.	c #DB9F2B",
"&.	c #E6941E",
"*.	c #B47215",
"=.	c #060300",
"-.	c #A66913",
";.	c #E08D19",
">.	c #DE8D19",
",.	c #DE8B17",
"'.	c #DC8A16",
").	c #DC8915",
"!.	c #DA8713",
"~.	c #D88814",
"{.	c #D29D29",
"].	c #BC8A16",
"^.	c #DA9F2B",
"/.	c #E3941F",
"(.	c #A66912",
"_.	c #050200",
":.	c #A36510",
"<.	c #DD8B16",
"[.	c #DB8814",
"}.	c #D98612",
"|.	c #D98512",
"1.	c #DA8B17",
"2.	c #D29C28",
"3.	c #B37B07",
"4.	c #C49521",
"5.	c #DB9621",
"6.	c #A7711C",
"7.	c #C37E18",
"8.	c #DB8813",
"9.	c #D98410",
"0.	c #DA8814",
"a.	c #DE901C",
"b.	c #D8921E",
"c.	c #C49420",
"d.	c #BB8C16",
"e.	c #CB901B",
"f.	c #D0931F",
"g.	c #D19521",
"h.	c #CE911D",
"i.	c #C08B17",
"                                        ",
"                                        ",
"  . + @ # $   %                         ",
"  & * = - ; > ,     '                   ",
"    ) ! ~ { ] ^ /   (                   ",
"      _ : < ^ ^ [ } | 1 2 3 4           ",
"      5 ^ ^ ^ ^ 6 7 8 9 0 a b c         ",
"    ^ ^ ^ ^ ^ ^ d e f g h i j k l       ",
"  ^ ^ ^ ^ ^ ^ ^ ^ ^ ^ ^ ^ ^ ^ m n o     ",
"^ ^ ^ ^ ^ ^ ^ ^ ^ ^ ^ ^ ^ ^ ^ m p q     ",
"^ ^ ^ ^ ^ ^ ^ ^ ^ ^ ^ ^ ^ ^ ^ r s t     ",
"  u v ^ ^ ^ ^ ^ ^ ^ ^ ^ ^ ^ ^ w x y     ",
"    z A ^ ^ ^ ^ B C i D E E F G H       ",
"    I J ^ ^ ^ ^ K L M N O P Q R S 2     ",
"    T U V W ^ ^ X Y Z `  ...+.@.#.$.    ",
"      %.&.*.=.^ -.;.>.,.'.).!.~.{.      ",
"      ].^./.(._.:.<.).[.}.|.1.2.3.      ",
"          4.5.6.7.8.9.0.a.b.c.          ",
"              d.e.f.g.h.i.              ",
"                                        "};
