/* XPM */
static const char * logo_disabled_xpm[] = {
"16 16 15 1",
" 	c None",
".	c #DFDBD2",
"+	c #DFDBD1",
"@	c #DEDBD2",
"#	c #DFDCD1",
"$	c #DFDCD2",
"%	c #DFDAD1",
"&	c #E0DBD2",
"*	c #E0DCD2",
"=	c #DEDBD3",
"-	c #DFDCD3",
";	c #E0DCD3",
">	c #DFDBD3",
",	c #DFDAD2",
"'	c #E0DAD2",
"      ..        ",
"     +@ .       ",
"    #$.% .      ",
"   &. *.@ .     ",
"  =    @.. .    ",
" @*-----..;-.*> ",
".              .",
".     .     =  .",
" ...   .   .   .",
".   .   . -    .",
". . .    .     .",
".   .   . .    .",
" ,,,   .   '   .",
".     .     @  .",
".              .",
" .............. "};
